…
    ## {html_document}
    ## <html data-version="klecko-" data-root="/home/br/build" lang="en" class="no-js">
    ## [1] <head>\n<meta http-equiv="Content-Type" content="text/html; charset=UTF-8 ...
    ## [2] <body class="br">\n<div id="wrap">\n  <div id="header" role="banner">\n   ...

``` r
#Gather all the tables from the HTML dataset

tables <- html %>% html_table(fill=TRUE)
tables
```

    ## [[1]]
    ## # A tibble: 29 × 39
    ##    ``    ``          ``    ``    ``    ``    ``    ``    ``    ``    ``    ``   
    ##    <chr> <chr>       <chr> <chr> <chr> <chr> <chr> <chr> <chr> <chr> <chr> <chr>
    ##  1 Rk    Name        YoB   Votes %vote HOFm  HOFs  Yrs   WAR   WAR7  JAWS  Jpos 
    ##  2 1     Ichiro Suz… 1st   393   99.7% 235   44    19    60.0  43.7  51.8  56.0 
    ##  3 2     CC Sabathia 1st   342   86.8% 128   48    19    62.3  39.4  50.8  61.3 
    ##  4 3     Billy Wagn… 10th  325   82.5% 107   24    16    27.7  19.8  23.7  31.6 
    ##  5 4     Carlos Bel… 3rd   277   70.3% 126   52    20    70.0  44.4  57.2  58.0 
    ##  6 5     Andruw Jon… 8th   261   66.2% 109   34    17    62.7  46.4  54.6  58.0 
    ##  7 6     Chase Utley 2nd   157   39.8% 94    36    16    64.6  49.3  56.9  57.0 
    ##  8 7     Alex Rodri… 4th   146   37.1% 390   77    22    117.4 64.3  90.8  55.4 
    ##  9 8     Manny Rami… 9th   135   34.3% 226   69    19    69.3  40.0  54.6  53.5 
    ## 10 9     Andy Petti… 7th   110   27.9% 128   44    18    60.2  34.1  47.2  61.3 
    ## # ℹ 19 more rows
    ## # ℹ 27 more variables: `Batting Stats` <chr>, `Batting Stats` <chr>,
    ## #   `Batting Stats` <chr>, `Batting Stats` <chr>, `Batting Stats` <chr>,
    ## #   `Batting Stats` <chr>, `Batting Stats` <chr>, `Batting Stats` <chr>,
    ## #   `Batting Stats` <chr>, `Batting Stats` <chr>, `Batting Stats` <chr>,
    ## #   `Batting Stats` <chr>, `Batting Stats` <chr>, `Pitching Stats` <chr>,
    ## #   `Pitching Stats` <chr>, `Pitching Stats` <chr>, `Pitching Stats` <chr>, …
    ## 
    ## [[2]]
…
#  Add category column
votes <- votes |> mutate(category = "Player")


#  Select only the final columns
votes <- votes |>
  select(playerID, yearID, votedBy, ballots, needed,
         votes, inducted, category)


votes
```

    ## # A tibble: 28 × 8
    ##    playerID  yearID votedBy ballots needed votes inducted category
    ##    <chr>      <dbl> <chr>     <dbl>  <dbl> <dbl> <chr>    <chr>   
    ##  1 suzukic01   2025 BBWAA       393    295   393 Y        Player  
    ##  2 sabatcc01   2025 BBWAA       393    295   342 Y        Player  
    ##  3 wagnebi02   2025 BBWAA       393    295   325 Y        Player  
    ##  4 <NA>        2025 BBWAA       393    295   277 N        Player  
    ##  5 jonesan01   2025 BBWAA       393    295   261 N        Player  
    ##  6 utleych01   2025 BBWAA       393    295   157 N        Player  
    ##  7 rodrial01   2025 BBWAA       393    295   146 N        Player  
    ##  8 ramirma02   2025 BBWAA       393    295   135 N        Player  
    ##  9 pettian01   2025 BBWAA       393    295   110 N        Player  
    ## 10 <NA>        2025 BBWAA       393    295    81 N        Player  
    ## # ℹ 18 more rows
